[
  {
    "value": "epithelial",
    "synonyms": [
      "epithelial"
    ]
  },
  {
    "value": "tissue",
    "synonyms": [
      "tissue"
    ]
  },
  {
    "value": "epithellial",
    "synonyms": [
      "epithellial"
    ]
  }
]