[
  {
    "id": "f28885e6-3d84-4606-b6bc-443345d45ff5",
    "data": [
      {
        "text": "what happened in in us",
        "userDefined": false
      }
    ],
    "isTemplate": false,
    "count": 0,
    "updated": 0
  }
]