[
  {
    "id": "af2f0fc7-7bc5-4e63-99d0-4e33f2cadf36",
    "data": [
      {
        "text": "what city was the convention when gerald ford was nominated",
        "userDefined": false
      }
    ],
    "isTemplate": false,
    "count": 0,
    "updated": 0
  }
]