[
  {
    "id": "e181177e-d8ad-4d3c-87e2-03c52d58c579",
    "data": [
      {
        "text": "what kind of earthquake was haiti",
        "userDefined": false
      }
    ],
    "isTemplate": false,
    "count": 0,
    "updated": 0
  }
]