[
  {
    "id": "7c0d9560-b136-4c7a-8fdc-b5d67cff40e1",
    "data": [
      {
        "text": "what year was the track invented",
        "userDefined": false
      }
    ],
    "isTemplate": false,
    "count": 0,
    "updated": 0
  }
]