[
  {
    "id": "612fec15-82f6-461c-a8e0-1310f2445f19",
    "data": [
      {
        "text": "what is adem disease",
        "userDefined": false
      }
    ],
    "isTemplate": false,
    "count": 0,
    "updated": 0
  }
]