[
  {
    "id": "fa0b48f3-3e3b-4027-b16a-b72ea6800acb",
    "data": [
      {
        "text": "what does an advocacy website promote",
        "userDefined": false
      }
    ],
    "isTemplate": false,
    "count": 0,
    "updated": 0
  }
]