[
  {
    "id": "94c66996-971f-440b-a6f8-71895589b7b5",
    "data": [
      {
        "text": "how african americans were immigrated to the us",
        "userDefined": false
      }
    ],
    "isTemplate": false,
    "count": 0,
    "updated": 0
  }
]