{
  "id": "4eba7b46-4fcf-4b32-858a-bef70b746877",
  "name": "Afterimage",
  "auto": true,
  "contexts": [],
  "responses": [
    {
      "resetContexts": false,
      "affectedContexts": [],
      "parameters": [],
      "messages": [
        {
          "type": 0,
          "lang": "en",
          "speech": "If the viewer stares at this image for 20–60 seconds and stares at a white object, a negative afterimage will appear (in this case, it will be cyan on magenta )."
        }
      ],
      "defaultResponsePlatforms": {},
      "speech": []
    }
  ],
  "priority": 500000,
  "webhookUsed": false,
  "webhookForSlotFilling": false,
  "fallbackIntent": false,
  "events": []
}