[
  {
    "id": "afedd105-d36b-44fa-a37f-a0d11e5379c4",
    "data": [
      {
        "text": "what rank is the highest in the air force",
        "userDefined": false
      }
    ],
    "isTemplate": false,
    "count": 0,
    "updated": 0
  }
]