[
  {
    "id": "7a681690-7b54-4583-b02f-dbf62cb5305f",
    "data": [
      {
        "text": "when does air bag deploy",
        "userDefined": false
      }
    ],
    "isTemplate": false,
    "count": 0,
    "updated": 0
  }
]