[
  {
    "id": "59f24b93-29ce-4b8f-a9bb-5d083fb553e7",
    "data": [
      {
        "text": "who controlled alaska before us",
        "userDefined": false
      }
    ],
    "isTemplate": false,
    "count": 0,
    "updated": 0
  }
]