[
  {
    "id": "c03b3f54-ccac-44b2-b2aa-b600b625e2bf",
    "data": [
      {
        "text": "how old is alicia in",
        "userDefined": false
      }
    ],
    "isTemplate": false,
    "count": 0,
    "updated": 0
  }
]