{
  "id": "72db8ebe-ba85-47bd-a17d-5a54690601bc",
  "name": "Alicia Keys",
  "auto": true,
  "contexts": [],
  "responses": [
    {
      "resetContexts": false,
      "affectedContexts": [],
      "parameters": [],
      "messages": [
        {
          "type": 0,
          "lang": "en",
          "speech": "Alicia Augello Cook (born January 25, 1981), known professionally as Alicia Keys, is an American R\u0026B singer-songwriter , musician, record producer and actress."
        }
      ],
      "defaultResponsePlatforms": {},
      "speech": []
    }
  ],
  "priority": 500000,
  "webhookUsed": false,
  "webhookForSlotFilling": false,
  "fallbackIntent": false,
  "events": []
}