{
  "id": "649e0f04-2e58-4631-87ab-953610f7f4d0",
  "name": "American Revolution",
  "auto": true,
  "contexts": [],
  "responses": [
    {
      "resetContexts": false,
      "affectedContexts": [],
      "parameters": [],
      "messages": [
        {
          "type": 0,
          "lang": "en",
          "speech": "In this article, inhabitants of the Thirteen Colonies of British America that supported the American Revolution are primarily referred to as \"Americans,\" with occasional references to \" Patriots ,\" \"Whigs,\" \"Rebels\" or \"Revolutionaries.\""
        }
      ],
      "defaultResponsePlatforms": {},
      "speech": []
    }
  ],
  "priority": 500000,
  "webhookUsed": false,
  "webhookForSlotFilling": false,
  "fallbackIntent": false,
  "events": []
}