[
  {
    "id": "f2b08030-e82c-4299-981c-7a11c783c310",
    "data": [
      {
        "text": "how has the american dream changed over the years",
        "userDefined": false
      }
    ],
    "isTemplate": false,
    "count": 0,
    "updated": 0
  }
]