[
  {
    "id": "5ca7243c-a800-4e70-b9a3-eb972e061378",
    "data": [
      {
        "text": "who said dallas cowboys were america team",
        "userDefined": false
      }
    ],
    "isTemplate": false,
    "count": 0,
    "updated": 0
  }
]