[
  {
    "id": "d976a1c5-e3ea-485b-92ca-94fa388466de",
    "data": [
      {
        "text": "who founded the american red cross",
        "userDefined": false
      }
    ],
    "isTemplate": false,
    "count": 0,
    "updated": 0
  }
]