[
  {
    "id": "806b3eaa-b86e-448a-978a-20e3b6a929f6",
    "data": [
      {
        "text": "who usually catches the football",
        "userDefined": false
      }
    ],
    "isTemplate": false,
    "count": 0,
    "updated": 0
  }
]