{
  "id": "ff1b5a52-b82e-4fe4-961f-aea81dcc6b9c",
  "name": "America\u0027s Next Top Model, Cycle 12",
  "auto": true,
  "contexts": [],
  "responses": [
    {
      "resetContexts": false,
      "affectedContexts": [],
      "parameters": [],
      "messages": [
        {
          "type": 0,
          "lang": "en",
          "speech": "America\u0027s Next Top Model, Cycle 12 is the twelfth cycle of America\u0027s Next Top Model and the sixth season to air on The CW network."
        }
      ],
      "defaultResponsePlatforms": {},
      "speech": []
    }
  ],
  "priority": 500000,
  "webhookUsed": false,
  "webhookForSlotFilling": false,
  "fallbackIntent": false,
  "events": []
}