[
  {
    "id": "777b7179-f543-4867-953b-91adeb631d15",
    "data": [
      {
        "text": "what antibodies are produced in large quantities",
        "userDefined": false
      }
    ],
    "isTemplate": false,
    "count": 0,
    "updated": 0
  }
]