[
  {
    "id": "6338a52f-caf9-4d38-8742-a8cc81c6bb27",
    "data": [
      {
        "text": "what does arraignment mean",
        "userDefined": false
      }
    ],
    "isTemplate": false,
    "count": 0,
    "updated": 0
  }
]