[
  {
    "id": "4a16882c-a099-4915-adb2-af86ce99e23e",
    "data": [
      {
        "text": "who killed robert kennedy",
        "userDefined": false
      }
    ],
    "isTemplate": false,
    "count": 0,
    "updated": 0
  }
]