[
  {
    "id": "11078443-7cd5-4664-a43d-3d366292d039",
    "data": [
      {
        "text": "how deep is the atlantic ocean",
        "userDefined": false
      }
    ],
    "isTemplate": false,
    "count": 0,
    "updated": 0
  }
]