{
  "id": "5479bf5e-64bf-40ff-8891-0bdbf33fae2f",
  "name": "Atmosphere of Mercury",
  "auto": true,
  "contexts": [],
  "responses": [
    {
      "resetContexts": false,
      "affectedContexts": [],
      "parameters": [],
      "messages": [
        {
          "type": 0,
          "lang": "en",
          "speech": "Mercury has a very tenuous and highly variable atmosphere (surface-bound exosphere ) containing hydrogen , helium , oxygen , sodium , calcium , potassium and water vapor , with a combined pressure level of about 10−14 bar (1 nPa )."
        }
      ],
      "defaultResponsePlatforms": {},
      "speech": []
    }
  ],
  "priority": 500000,
  "webhookUsed": false,
  "webhookForSlotFilling": false,
  "fallbackIntent": false,
  "events": []
}