[
  {
    "id": "d8fbe4c0-1793-43a3-bf34-a393eeaa3259",
    "data": [
      {
        "text": "what the atmosphere on mercury",
        "userDefined": false
      }
    ],
    "isTemplate": false,
    "count": 0,
    "updated": 0
  }
]