{
  "id": "dcb64568-9fec-4ddf-aaf5-5806f50d395c",
  "name": "Auld Lang Syne",
  "auto": true,
  "contexts": [],
  "responses": [
    {
      "resetContexts": false,
      "affectedContexts": [],
      "parameters": [],
      "messages": [
        {
          "type": 0,
          "lang": "en",
          "speech": "Auld Lang Syne (: note \"s\" rather than \"z\") is a Scots poem written by Robert Burns in 1788 and set to the tune of a traditional folk song ( Roud # 6294)."
        }
      ],
      "defaultResponsePlatforms": {},
      "speech": []
    }
  ],
  "priority": 500000,
  "webhookUsed": false,
  "webhookForSlotFilling": false,
  "fallbackIntent": false,
  "events": []
}