[
  {
    "id": "8f31ee74-a362-48a2-9e51-7f0e4a31a55d",
    "data": [
      {
        "text": "what are batteries made up of",
        "userDefined": false
      }
    ],
    "isTemplate": false,
    "count": 0,
    "updated": 0
  }
]