[
  {
    "id": "45973805-7955-4bad-876c-356063589188",
    "data": [
      {
        "text": "how is a backpack made",
        "userDefined": false
      }
    ],
    "isTemplate": false,
    "count": 0,
    "updated": 0
  }
]