[
  {
    "id": "6028a6f4-5b1c-4f48-83b5-edb8659bf8d8",
    "data": [
      {
        "text": "what are corporation balance",
        "userDefined": false
      }
    ],
    "isTemplate": false,
    "count": 0,
    "updated": 0
  }
]