{
  "id": "f5a69da5-9107-4807-97b1-661449bb3a46",
  "name": "Barney Stinson",
  "auto": true,
  "contexts": [],
  "responses": [
    {
      "resetContexts": false,
      "affectedContexts": [],
      "parameters": [],
      "messages": [
        {
          "type": 0,
          "lang": "en",
          "speech": "Barnabus \u0027Barney\u0027 Stinson (born 1976) is a fictional character created by Carter Bays and Craig Thomas for the CBS television series How I Met Your Mother , portrayed by Neil Patrick Harris ."
        }
      ],
      "defaultResponsePlatforms": {},
      "speech": []
    }
  ],
  "priority": 500000,
  "webhookUsed": false,
  "webhookForSlotFilling": false,
  "fallbackIntent": false,
  "events": []
}