[
  {
    "id": "1231331c-13b1-4ba6-9aa0-eef8cf90af5a",
    "data": [
      {
        "text": "who sings better off dead in better off dead",
        "userDefined": false
      }
    ],
    "isTemplate": false,
    "count": 0,
    "updated": 0
  }
]