[
  {
    "id": "dc06384e-70fc-4e98-b7a3-6e93f2dd5077",
    "data": [
      {
        "text": "how do you determine pump frame type",
        "userDefined": false
      }
    ],
    "isTemplate": false,
    "count": 0,
    "updated": 0
  }
]