{
  "id": "bf2261b7-7c59-4998-9edf-097f8b1174b3",
  "name": "Billy the Kid",
  "auto": true,
  "contexts": [],
  "responses": [
    {
      "resetContexts": false,
      "affectedContexts": [],
      "parameters": [],
      "messages": [
        {
          "type": 0,
          "lang": "en",
          "speech": "William H. Bonney (born William Henry McCarty, Jr. c. November 23, 1859 – c. July 14, 1881), better known as Billy the Kid but also known as Henry Antrim, was a 19th-century American gunman who participated in the Lincoln County War and became a frontier outlaw in the American Old West ."
        }
      ],
      "defaultResponsePlatforms": {},
      "speech": []
    }
  ],
  "priority": 500000,
  "webhookUsed": false,
  "webhookForSlotFilling": false,
  "fallbackIntent": false,
  "events": []
}