{
  "id": "6bce72f3-6f8c-4b82-a954-2b3528f9e5ea",
  "name": "Brad Pitt",
  "auto": true,
  "contexts": [],
  "responses": [
    {
      "resetContexts": false,
      "affectedContexts": [],
      "parameters": [],
      "messages": [
        {
          "type": 0,
          "lang": "en",
          "speech": "William Bradley \"Brad\" Pitt (born December 18, 1963) is an American actor and film producer."
        }
      ],
      "defaultResponsePlatforms": {},
      "speech": []
    }
  ],
  "priority": 500000,
  "webhookUsed": false,
  "webhookForSlotFilling": false,
  "fallbackIntent": false,
  "events": []
}