{
  "id": "92922253-8415-4395-a93c-befcd6b76f7a",
  "name": "Brett Favre",
  "auto": true,
  "contexts": [],
  "responses": [
    {
      "resetContexts": false,
      "affectedContexts": [],
      "parameters": [],
      "messages": [
        {
          "type": 0,
          "lang": "en",
          "speech": "Brett Lorenzo Favre (born October 10, 1969) is a former American football quarterback who spent the majority of his career with the Green Bay Packers of the National Football League (NFL)."
        }
      ],
      "defaultResponsePlatforms": {},
      "speech": []
    }
  ],
  "priority": 500000,
  "webhookUsed": false,
  "webhookForSlotFilling": false,
  "fallbackIntent": false,
  "events": []
}