[
  {
    "id": "e776514c-c3ec-47d4-a7f3-6cd217257433",
    "data": [
      {
        "text": "how many games did brett favre start in a row",
        "userDefined": false
      }
    ],
    "isTemplate": false,
    "count": 0,
    "updated": 0
  }
]