[
  {
    "id": "d2018831-1f0c-4097-9da6-7d78bad5667a",
    "data": [
      {
        "text": "what kind of food does the british blue cat eat",
        "userDefined": false
      }
    ],
    "isTemplate": false,
    "count": 0,
    "updated": 0
  }
]