[
  {
    "id": "f74a56c0-f077-4dda-a2cd-4b7072528666",
    "data": [
      {
        "text": "what does bruce jenner do",
        "userDefined": false
      }
    ],
    "isTemplate": false,
    "count": 0,
    "updated": 0
  }
]