{
  "id": "c696518b-8bc5-4796-9609-baa887b32b33",
  "name": "Bruce Jenner",
  "auto": true,
  "contexts": [],
  "responses": [
    {
      "resetContexts": false,
      "affectedContexts": [],
      "parameters": [],
      "messages": [
        {
          "type": 0,
          "lang": "en",
          "speech": "William Bruce Jenner (born October 28, 1949) is a former U.S. track and field athlete , motivational speaker , socialite , television personality and businessman ."
        }
      ],
      "defaultResponsePlatforms": {},
      "speech": []
    }
  ],
  "priority": 500000,
  "webhookUsed": false,
  "webhookForSlotFilling": false,
  "fallbackIntent": false,
  "events": []
}