{
  "id": "bed01189-8168-42ca-a8cc-62143563f3ba",
  "name": "Buddhism by country",
  "auto": true,
  "contexts": [],
  "responses": [
    {
      "resetContexts": false,
      "affectedContexts": [],
      "parameters": [],
      "messages": [
        {
          "type": 0,
          "lang": "en",
          "speech": "Confucianism , Taoism , and Buddhism are one, a painting in the litang style portraying three men laughing by a river stream, 12th century, Song Dynasty ."
        }
      ],
      "defaultResponsePlatforms": {},
      "speech": []
    }
  ],
  "priority": 500000,
  "webhookUsed": false,
  "webhookForSlotFilling": false,
  "fallbackIntent": false,
  "events": []
}