[
  {
    "id": "e9e58d70-bd4d-4442-81d9-2ba09e6124a2",
    "data": [
      {
        "text": "what produces calcitonin",
        "userDefined": false
      }
    ],
    "isTemplate": false,
    "count": 0,
    "updated": 0
  }
]