[
  {
    "id": "19089510-cdbb-45fa-bd54-1c199efd4af9",
    "data": [
      {
        "text": "how was marijuana discovered",
        "userDefined": false
      }
    ],
    "isTemplate": false,
    "count": 0,
    "updated": 0
  }
]