[
  {
    "id": "ead2b59d-715c-4df2-a5a8-c7d20f9f6fcb",
    "data": [
      {
        "text": "when a cell divides",
        "userDefined": false
      }
    ],
    "isTemplate": false,
    "count": 0,
    "updated": 0
  }
]