[
  {
    "id": "39f0ffa1-7f22-44ab-9eb1-60d3157ac3ac",
    "data": [
      {
        "text": "what countries are in central america",
        "userDefined": false
      }
    ],
    "isTemplate": false,
    "count": 0,
    "updated": 0
  }
]