[
  {
    "id": "25a8add9-a0af-461d-b586-575e0d3107a6",
    "data": [
      {
        "text": "what building inside central park",
        "userDefined": false
      }
    ],
    "isTemplate": false,
    "count": 0,
    "updated": 0
  }
]