[
  {
    "id": "a2f7c080-93ea-4a92-b4bb-907cf85de4da",
    "data": [
      {
        "text": "how did bleeding sumner lead to the civil war",
        "userDefined": false
      }
    ],
    "isTemplate": false,
    "count": 0,
    "updated": 0
  }
]