[
  {
    "id": "4d619472-077c-4166-9998-addbabee7feb",
    "data": [
      {
        "text": "how did the chernobyl nuclear disaster affect nature",
        "userDefined": false
      }
    ],
    "isTemplate": false,
    "count": 0,
    "updated": 0
  }
]