{
  "id": "47ec21d2-cbdd-4e25-87c3-df2e4f9f1b41",
  "name": "Chevrolet Cavalier",
  "auto": true,
  "contexts": [],
  "responses": [
    {
      "resetContexts": false,
      "affectedContexts": [],
      "parameters": [],
      "messages": [
        {
          "type": 0,
          "lang": "en",
          "speech": "The Chevrolet Cavalier was a compact automobile produced from 1982 to 2005 by General Motors ."
        }
      ],
      "defaultResponsePlatforms": {},
      "speech": []
    }
  ],
  "priority": 500000,
  "webhookUsed": false,
  "webhookForSlotFilling": false,
  "fallbackIntent": false,
  "events": []
}