{
  "id": "5f4977d6-a064-4b41-b7e5-954281ec1a9e",
  "name": "Chevrolet Corvette (C5)",
  "auto": true,
  "contexts": [],
  "responses": [
    {
      "resetContexts": false,
      "affectedContexts": [],
      "parameters": [],
      "messages": [
        {
          "type": 0,
          "lang": "en",
          "speech": "The Chevrolet Corvette (C5) is a sports car produced by the Chevrolet division of General Motors for the 1997 through 2004 model years ."
        }
      ],
      "defaultResponsePlatforms": {},
      "speech": []
    }
  ],
  "priority": 500000,
  "webhookUsed": false,
  "webhookForSlotFilling": false,
  "fallbackIntent": false,
  "events": []
}