[
  {
    "id": "31045a97-6e44-4750-a9eb-bacd5ffca3a9",
    "data": [
      {
        "text": "what happened to kuomintang after the chinese civil war",
        "userDefined": false
      }
    ],
    "isTemplate": false,
    "count": 0,
    "updated": 0
  }
]