[
  {
    "id": "bab9f228-55aa-4330-b188-865c897ae5fa",
    "data": [
      {
        "text": "how much does christianity cover kenya",
        "userDefined": false
      }
    ],
    "isTemplate": false,
    "count": 0,
    "updated": 0
  }
]