[
  {
    "id": "da16185d-e4d4-4784-b3d4-c9c92cdf05cd",
    "data": [
      {
        "text": "how old are the massey brothers",
        "userDefined": false
      }
    ],
    "isTemplate": false,
    "count": 0,
    "updated": 0
  }
]