[
  {
    "id": "85e6c647-2fe5-461f-b722-7981ddbf8e9d",
    "data": [
      {
        "text": "when did the cold war start",
        "userDefined": false
      }
    ],
    "isTemplate": false,
    "count": 0,
    "updated": 0
  }
]