[
  {
    "id": "515891ca-d801-4ff4-b81c-41e2c03f8392",
    "data": [
      {
        "text": "what does it mean to be a commonwealth state",
        "userDefined": false
      }
    ],
    "isTemplate": false,
    "count": 0,
    "updated": 0
  }
]