[
  {
    "id": "fbfb8340-0328-4412-8ba5-36ea551b8da4",
    "data": [
      {
        "text": "how is a computer used",
        "userDefined": false
      }
    ],
    "isTemplate": false,
    "count": 0,
    "updated": 0
  }
]