[
  {
    "id": "c3744aff-ec77-4a55-a789-673096bb69e8",
    "data": [
      {
        "text": "how much is a cord of wood",
        "userDefined": false
      }
    ],
    "isTemplate": false,
    "count": 0,
    "updated": 0
  }
]