{
  "id": "fe6ca342-32a8-4248-971e-876be029903e",
  "name": "course_career",
  "auto": true,
  "contexts": [],
  "responses": [
    {
      "resetContexts": false,
      "affectedContexts": [],
      "parameters": [
        {
          "id": "b1d17162-5a26-4c43-acc2-f1ef65d72fd3",
          "required": false,
          "dataType": "@course_career",
          "name": "course_career",
          "value": "$course_career",
          "isList": false
        }
      ],
      "messages": [
        {
          "type": 0,
          "lang": "en",
          "speech": "$course_career"
        }
      ],
      "defaultResponsePlatforms": {},
      "speech": []
    }
  ],
  "priority": 500000,
  "webhookUsed": false,
  "webhookForSlotFilling": false,
  "lastUpdate": 1539416522,
  "fallbackIntent": false,
  "events": []
}