[
  {
    "id": "7a751bae-cd4f-49e1-a71d-5aa0fda25e74",
    "data": [
      {
        "text": "prerequisite of ",
        "userDefined": false
      },
      {
        "text": "COMP9024",
        "alias": "Course_prerequisite",
        "meta": "@Course_prerequisite",
        "userDefined": false
      }
    ],
    "isTemplate": false,
    "count": 0,
    "updated": 1539415679
  },
  {
    "id": "967f81eb-2d1a-4132-bd74-7ec7bd7e9660",
    "data": [
      {
        "text": "What is the prerequisite of ",
        "userDefined": false
      },
      {
        "text": "COMP9024",
        "alias": "Course_prerequisite",
        "meta": "@Course_prerequisite",
        "userDefined": false
      }
    ],
    "isTemplate": false,
    "count": 0,
    "updated": 1539415679
  }
]