[
  {
    "id": "6330feb8-21ef-4a72-89a9-1db12b1eba41",
    "data": [
      {
        "text": "Which school is ",
        "userDefined": false
      },
      {
        "text": "COMP9024",
        "alias": "course_school",
        "meta": "@course_school",
        "userDefined": false
      }
    ],
    "isTemplate": false,
    "count": 0,
    "updated": 1539415286
  },
  {
    "id": "d26568e1-eeb5-47b3-a42d-a18141123674",
    "data": [
      {
        "text": "Which school does ",
        "userDefined": false
      },
      {
        "text": "COMP9024",
        "alias": "course_school",
        "meta": "@course_school",
        "userDefined": false
      },
      {
        "text": " belongs to?",
        "userDefined": false
      }
    ],
    "isTemplate": false,
    "count": 0,
    "updated": 1539415375
  },
  {
    "id": "ada72de1-6c68-4bca-b13a-97225a005aa7",
    "data": [
      {
        "text": "school of ",
        "userDefined": false
      },
      {
        "text": "COMP9024",
        "alias": "course_school",
        "meta": "@course_school",
        "userDefined": true
      }
    ],
    "isTemplate": false,
    "count": 0,
    "updated": 1539415375
  }
]