[
  {
    "id": "8edc1100-687d-472f-8f9b-4c1160bd4246",
    "data": [
      {
        "text": "Give introduction about ",
        "userDefined": false
      },
      {
        "text": "COMP9024",
        "alias": "Course_description",
        "meta": "@Course_description",
        "userDefined": false
      }
    ],
    "isTemplate": false,
    "count": 0,
    "updated": 1539417570
  },
  {
    "id": "282b38b6-9077-4974-97f6-8e07f80ba6f5",
    "data": [
      {
        "text": "Tell me about ",
        "userDefined": false
      },
      {
        "text": "COMP9024",
        "alias": "Course_description",
        "meta": "@Course_description",
        "userDefined": false
      }
    ],
    "isTemplate": false,
    "count": 0,
    "updated": 1539417699
  },
  {
    "id": "eb0bb981-044f-47d3-b137-c13703559755",
    "data": [
      {
        "text": "Describe ",
        "userDefined": false
      },
      {
        "text": "COMP9024",
        "alias": "Course_description",
        "meta": "@Course_description",
        "userDefined": false
      }
    ],
    "isTemplate": false,
    "count": 0,
    "updated": 1539417570
  },
  {
    "id": "84e45217-ef31-4c96-aadb-5c03434d1418",
    "data": [
      {
        "text": "Introduce ",
        "userDefined": false
      },
      {
        "text": "COMP9024",
        "alias": "Course_description",
        "meta": "@Course_description",
        "userDefined": false
      }
    ],
    "isTemplate": false,
    "count": 0,
    "updated": 1539417699
  }
]