{
  "id": "be8e68bf-ec4a-4256-8ff9-46b60f0d8c6e",
  "name": "Course info",
  "auto": true,
  "contexts": [],
  "responses": [
    {
      "resetContexts": false,
      "affectedContexts": [],
      "parameters": [
        {
          "id": "4d9c641c-e5b3-41e3-8cc7-307a5ced7e38",
          "required": false,
          "dataType": "@Courses",
          "name": "Courses",
          "value": "$Courses",
          "isList": false
        },
        {
          "id": "f9cecf0d-f6e6-401a-8ddb-c489cb2c5da7",
          "required": false,
          "dataType": "@Courses",
          "name": "Courses_code",
          "value": "$Courses.original",
          "isList": false
        }
      ],
      "messages": [
        {
          "type": 0,
          "lang": "en",
          "speech": "Here is the information about $Courses.original  $Courses"
        }
      ],
      "defaultResponsePlatforms": {},
      "speech": []
    }
  ],
  "priority": 500000,
  "webhookUsed": false,
  "webhookForSlotFilling": false,
  "lastUpdate": 1539417832,
  "fallbackIntent": false,
  "events": []
}