{
  "id": "85d0a931-b946-462f-bbdf-65b780ef8803",
  "name": "Crystallization",
  "auto": true,
  "contexts": [],
  "responses": [
    {
      "resetContexts": false,
      "affectedContexts": [],
      "parameters": [],
      "messages": [
        {
          "type": 0,
          "lang": "en",
          "speech": "Crystallization is the (natural or artificial) process of formation of solid crystals precipitating from a solution , melt or more rarely deposited directly from a gas ."
        }
      ],
      "defaultResponsePlatforms": {},
      "speech": []
    }
  ],
  "priority": 500000,
  "webhookUsed": false,
  "webhookForSlotFilling": false,
  "fallbackIntent": false,
  "events": []
}