[
  {
    "id": "89253ebe-5255-47bd-ad12-81b0bf09f080",
    "data": [
      {
        "text": "what does a cutter do",
        "userDefined": false
      }
    ],
    "isTemplate": false,
    "count": 0,
    "updated": 0
  }
]