[
  {
    "id": "a3c61a85-7093-46c5-af5a-eae72398fa96",
    "data": [
      {
        "text": "what did dada artists think of art in past museums",
        "userDefined": false
      }
    ],
    "isTemplate": false,
    "count": 0,
    "updated": 0
  }
]