[
  {
    "id": "27fd7c2c-0ae9-4a2a-8fbc-448b956006a7",
    "data": [
      {
        "text": "what are warehouse spreadsheets used for",
        "userDefined": false
      }
    ],
    "isTemplate": false,
    "count": 0,
    "updated": 0
  }
]