{
  "id": "d56321e0-0deb-4f93-80cc-b7eeaa0307bc",
  "name": "Data deduplication",
  "auto": true,
  "contexts": [],
  "responses": [
    {
      "resetContexts": false,
      "affectedContexts": [],
      "parameters": [],
      "messages": [
        {
          "type": 0,
          "lang": "en",
          "speech": "In computing , data deduplication is a specialized data compression technique for eliminating duplicate copies of repeating data."
        }
      ],
      "defaultResponsePlatforms": {},
      "speech": []
    }
  ],
  "priority": 500000,
  "webhookUsed": false,
  "webhookForSlotFilling": false,
  "fallbackIntent": false,
  "events": []
}