[
  {
    "id": "1e4eeae4-d97f-419e-8bd0-3171ed196879",
    "data": [
      {
        "text": "what is a day care for",
        "userDefined": false
      }
    ],
    "isTemplate": false,
    "count": 0,
    "updated": 0
  }
]