[
  {
    "id": "43573e9f-5b22-4405-998f-18b1d8855e4b",
    "data": [
      {
        "text": "who sung the banana boat song",
        "userDefined": false
      }
    ],
    "isTemplate": false,
    "count": 0,
    "updated": 0
  }
]