{
  "id": "0ce1ccd5-970e-472f-8b1a-4a598f699448",
  "name": "Debby Ryan",
  "auto": true,
  "contexts": [],
  "responses": [
    {
      "resetContexts": false,
      "affectedContexts": [],
      "parameters": [],
      "messages": [
        {
          "type": 0,
          "lang": "en",
          "speech": "Deborah Ann \"Debby\" Ryan (born May 13, 1993) is an American actress, singer, musician, songwriter and record producer ."
        }
      ],
      "defaultResponsePlatforms": {},
      "speech": []
    }
  ],
  "priority": 500000,
  "webhookUsed": false,
  "webhookForSlotFilling": false,
  "fallbackIntent": false,
  "events": []
}