[
  {
    "id": "d4a47b2a-d082-46ec-b8bf-ad5521c9e386",
    "data": [
      {
        "text": "how does an earthworm eat digests food",
        "userDefined": false
      }
    ],
    "isTemplate": false,
    "count": 0,
    "updated": 0
  }
]