[
  {
    "id": "a60d9200-ee65-45b0-858c-705b6f8ca5d5",
    "data": [
      {
        "text": "what year did disney animal kingdom lodge open",
        "userDefined": false
      }
    ],
    "isTemplate": false,
    "count": 0,
    "updated": 0
  }
]