{
  "id": "a74ae806-172a-4f8e-b11c-778af76c4b2b",
  "name": "Doctor of Osteopathic Medicine",
  "auto": true,
  "contexts": [],
  "responses": [
    {
      "resetContexts": false,
      "affectedContexts": [],
      "parameters": [],
      "messages": [
        {
          "type": 0,
          "lang": "en",
          "speech": "Doctor of Osteopathic Medicine (D.O. or DO) is a professional doctoral degree for physicians offered by medical schools in the United States ."
        }
      ],
      "defaultResponsePlatforms": {},
      "speech": []
    }
  ],
  "priority": 500000,
  "webhookUsed": false,
  "webhookForSlotFilling": false,
  "fallbackIntent": false,
  "events": []
}