{
  "id": "eb84a2c3-26d9-4692-9576-898fde1416d8",
  "name": "Driver\u0027s license in the United States",
  "auto": true,
  "contexts": [],
  "responses": [
    {
      "resetContexts": false,
      "affectedContexts": [],
      "parameters": [],
      "messages": [
        {
          "type": 0,
          "lang": "en",
          "speech": "In the United States , driver\u0027s licenses are issued by each individual state (including Washington, D.C. and territories ), rather than the federal government because of the political concept of federalism ."
        }
      ],
      "defaultResponsePlatforms": {},
      "speech": []
    }
  ],
  "priority": 500000,
  "webhookUsed": false,
  "webhookForSlotFilling": false,
  "fallbackIntent": false,
  "events": []
}