[
  {
    "id": "05f8e2cf-9013-46a1-b5b0-dd675f47d559",
    "data": [
      {
        "text": "what causes dry drowning",
        "userDefined": false
      }
    ],
    "isTemplate": false,
    "count": 0,
    "updated": 0
  }
]