[
  {
    "id": "5244ed98-0945-4356-90f5-74d3d16ce335",
    "data": [
      {
        "text": "what branch of army was dwight d eisenhower in",
        "userDefined": false
      }
    ],
    "isTemplate": false,
    "count": 0,
    "updated": 0
  }
]