[
  {
    "id": "3c668023-1ed4-42c9-a672-48342b1193c8",
    "data": [
      {
        "text": "how old r dylan and cole sprouse",
        "userDefined": false
      }
    ],
    "isTemplate": false,
    "count": 0,
    "updated": 0
  }
]