[
  {
    "id": "6caa43d9-e3b0-4be3-80ed-ca7c230eefcd",
    "data": [
      {
        "text": "what major agencies are studying earthquakes",
        "userDefined": false
      }
    ],
    "isTemplate": false,
    "count": 0,
    "updated": 0
  }
]