{
  "id": "14cdaecf-10c1-44d6-8c80-c455f2a5eae0",
  "name": "East Coast of the United States",
  "auto": true,
  "contexts": [],
  "responses": [
    {
      "resetContexts": false,
      "affectedContexts": [],
      "parameters": [],
      "messages": [
        {
          "type": 0,
          "lang": "en",
          "speech": "The East Coast of the United States, also known as the Eastern Seaboard or the Atlantic Seaboard and commonly shortened to East Coast, refers to the easternmost coast of the United States along the Atlantic Ocean ."
        }
      ],
      "defaultResponsePlatforms": {},
      "speech": []
    }
  ],
  "priority": 500000,
  "webhookUsed": false,
  "webhookForSlotFilling": false,
  "fallbackIntent": false,
  "events": []
}