[
  {
    "id": "76e2fc69-a797-4ec7-80c3-ac70f9befc47",
    "data": [
      {
        "text": "how did edgar allan poe die",
        "userDefined": false
      }
    ],
    "isTemplate": false,
    "count": 0,
    "updated": 0
  }
]