{
  "id": "9e770da2-2218-470d-ad6a-979e101f7327",
  "name": "Education in the United States",
  "auto": true,
  "contexts": [],
  "responses": [
    {
      "resetContexts": false,
      "affectedContexts": [],
      "parameters": [],
      "messages": [
        {
          "type": 0,
          "lang": "en",
          "speech": "Education in the United States is mainly provided by the public sector , with control and funding coming from three levels: local , state , and federal , in that order."
        }
      ],
      "defaultResponsePlatforms": {},
      "speech": []
    }
  ],
  "priority": 500000,
  "webhookUsed": false,
  "webhookForSlotFilling": false,
  "fallbackIntent": false,
  "events": []
}