[
  {
    "id": "d17af2df-bd90-4d33-a279-cb6123cbc137",
    "data": [
      {
        "text": "how long do lights stay on eiffel tower at night",
        "userDefined": false
      }
    ],
    "isTemplate": false,
    "count": 0,
    "updated": 0
  }
]