{
  "id": "75fd442b-8915-4193-8173-3629f29fe5f0",
  "name": "Ejection fraction",
  "auto": true,
  "contexts": [],
  "responses": [
    {
      "resetContexts": false,
      "affectedContexts": [],
      "parameters": [],
      "messages": [
        {
          "type": 0,
          "lang": "en",
          "speech": "In cardiovascular physiology , ejection fraction (EF) represents the volumetric fraction of blood pumped out of the ventricle (heart) with each heart beat or cardiac cycle ."
        }
      ],
      "defaultResponsePlatforms": {},
      "speech": []
    }
  ],
  "priority": 500000,
  "webhookUsed": false,
  "webhookForSlotFilling": false,
  "fallbackIntent": false,
  "events": []
}