[
  {
    "id": "83bd68fe-debe-4026-8c70-6c28486850fc",
    "data": [
      {
        "text": "when does the electoral college votes",
        "userDefined": false
      }
    ],
    "isTemplate": false,
    "count": 0,
    "updated": 0
  }
]