{
  "id": "88fcab73-b52b-4609-a5e3-854bb55acc55",
  "name": "Elk",
  "auto": true,
  "contexts": [],
  "responses": [
    {
      "resetContexts": false,
      "affectedContexts": [],
      "parameters": [],
      "messages": [
        {
          "type": 0,
          "lang": "en",
          "speech": "The elk or wapiti (Cervus canadensis) is one of the largest species of deer in the world, and one of the largest land mammals in North America and eastern Asia ."
        }
      ],
      "defaultResponsePlatforms": {},
      "speech": []
    }
  ],
  "priority": 500000,
  "webhookUsed": false,
  "webhookForSlotFilling": false,
  "fallbackIntent": false,
  "events": []
}