[
  {
    "id": "7c799963-4eec-4544-964f-d6805e7065db",
    "data": [
      {
        "text": "who starred in the drama emergency",
        "userDefined": false
      }
    ],
    "isTemplate": false,
    "count": 0,
    "updated": 0
  }
]