[
  {
    "id": "21112641-6cca-41c7-a367-3495b32fce36",
    "data": [
      {
        "text": "how many countries are member of the eu",
        "userDefined": false
      }
    ],
    "isTemplate": false,
    "count": 0,
    "updated": 0
  }
]