{
  "id": "833f04ba-0c66-4f16-9600-f494979943fa",
  "name": "events.search.implicit",
  "auto": true,
  "contexts": [],
  "responses": [
    {
      "resetContexts": false,
      "action": "events.search.implicit",
      "affectedContexts": [
        {
          "name": "eventssearch-followup",
          "parameters": {},
          "lifespan": 2
        }
      ],
      "parameters": [
        {
          "id": "1d8f8d43-2cab-4a51-acf8-9d7cbc4e898c",
          "required": false,
          "dataType": "@sys.date-time",
          "name": "date-time",
          "value": "$date-time",
          "isList": false
        },
        {
          "id": "b23b791b-0822-4c22-a53f-9b6c97edd722",
          "required": false,
          "dataType": "@map-sort",
          "name": "sort",
          "value": "$sort",
          "isList": false
        }
      ],
      "messages": [
        {
          "type": 0,
          "lang": "en",
          "speech": "I\u0027m searching for events in your location. You can navigate through results by saying next/previous/more about number 3."
        }
      ],
      "defaultResponsePlatforms": {},
      "speech": []
    }
  ],
  "priority": 500000,
  "webhookUsed": false,
  "webhookForSlotFilling": false,
  "lastUpdate": 1538287791,
  "fallbackIntent": false,
  "events": []
}