[
  {
    "id": "a103850c-15b6-4314-9b88-6249e66346fd",
    "data": [
      {
        "text": "what war led to pearl harbor",
        "userDefined": false
      }
    ],
    "isTemplate": false,
    "count": 0,
    "updated": 0
  }
]