{
  "id": "d6873f3f-5a0b-4c73-9a52-6101e2aada77",
  "name": "ExxonMobil",
  "auto": true,
  "contexts": [],
  "responses": [
    {
      "resetContexts": false,
      "affectedContexts": [],
      "parameters": [],
      "messages": [
        {
          "type": 0,
          "lang": "en",
          "speech": "Exxon Mobil Corporation, or ExxonMobil, is an American multinational oil and gas corporation headquartered in Irving , Texas , United States."
        }
      ],
      "defaultResponsePlatforms": {},
      "speech": []
    }
  ],
  "priority": 500000,
  "webhookUsed": false,
  "webhookForSlotFilling": false,
  "fallbackIntent": false,
  "events": []
}