[
  {
    "id": "d3430e41-9ba0-402c-9e64-9be3c5aa4962",
    "data": [
      {
        "text": "who owns exxon mobil",
        "userDefined": false
      }
    ],
    "isTemplate": false,
    "count": 0,
    "updated": 0
  }
]