[
  {
    "id": "24caa2d1-c3be-43ca-b53a-a3f7a725d00d",
    "data": [
      {
        "text": "who fought for the falcons island",
        "userDefined": false
      }
    ],
    "isTemplate": false,
    "count": 0,
    "updated": 0
  }
]