{
  "id": "043ed40e-0d2e-400a-9089-4eccdce643f5",
  "name": "Federal Reserve System",
  "auto": true,
  "contexts": [],
  "responses": [
    {
      "resetContexts": false,
      "affectedContexts": [],
      "parameters": [],
      "messages": [
        {
          "type": 0,
          "lang": "en",
          "speech": "The Federal Reserve System (also known as the Federal Reserve, and informally as the Fed) is the central banking system of the United States."
        }
      ],
      "defaultResponsePlatforms": {},
      "speech": []
    }
  ],
  "priority": 500000,
  "webhookUsed": false,
  "webhookForSlotFilling": false,
  "fallbackIntent": false,
  "events": []
}