{
  "id": "469acf70-a55a-4e40-9168-0456084e249b",
  "name": "Flag of Chile",
  "auto": true,
  "contexts": [],
  "responses": [
    {
      "resetContexts": false,
      "affectedContexts": [],
      "parameters": [],
      "messages": [
        {
          "type": 0,
          "lang": "en",
          "speech": "The national flag of Chile , consists of two unequal horizontal bands of white and red and a blue square the same height as the white band in the canton , which bears a white five-pointed star in the center."
        }
      ],
      "defaultResponsePlatforms": {},
      "speech": []
    }
  ],
  "priority": 500000,
  "webhookUsed": false,
  "webhookForSlotFilling": false,
  "fallbackIntent": false,
  "events": []
}