[
  {
    "id": "17e596f0-06a7-4a97-a9f8-6eb8d2827fb7",
    "data": [
      {
        "text": "how long is a flat membrane roof good for",
        "userDefined": false
      }
    ],
    "isTemplate": false,
    "count": 0,
    "updated": 0
  }
]