{
  "id": "b50df520-d5d5-4adf-a90a-32d86f491419",
  "name": "Gasser (car)",
  "auto": true,
  "contexts": [],
  "responses": [
    {
      "resetContexts": false,
      "affectedContexts": [],
      "parameters": [],
      "messages": [
        {
          "type": 0,
          "lang": "en",
          "speech": "A gasser was a type of hot rod originating on the dragstrips of the United States in the late 1950s and continued until the early 1970s."
        }
      ],
      "defaultResponsePlatforms": {},
      "speech": []
    }
  ],
  "priority": 500000,
  "webhookUsed": false,
  "webhookForSlotFilling": false,
  "fallbackIntent": false,
  "events": []
}