{
  "id": "8019a289-7f12-43c1-a7ae-2d1e03b671b4",
  "name": "Gears of War",
  "auto": true,
  "contexts": [],
  "responses": [
    {
      "resetContexts": false,
      "affectedContexts": [],
      "parameters": [],
      "messages": [
        {
          "type": 0,
          "lang": "en",
          "speech": "Gears of War is a military science fiction third-person shooter video game developed by Epic Games and published by Microsoft Game Studios ."
        }
      ],
      "defaultResponsePlatforms": {},
      "speech": []
    }
  ],
  "priority": 500000,
  "webhookUsed": false,
  "webhookForSlotFilling": false,
  "fallbackIntent": false,
  "events": []
}