{
  "id": "e0e58481-6a4a-4dc6-b3df-1d9bac2c8937",
  "name": "Geoffrey Chaucer",
  "auto": true,
  "contexts": [],
  "responses": [
    {
      "resetContexts": false,
      "affectedContexts": [],
      "parameters": [],
      "messages": [
        {
          "type": 0,
          "lang": "en",
          "speech": "Geoffrey Chaucer (; c. 1343 – 25 October 1400), known as the Father of English literature , is widely considered the greatest English poet of the Middle Ages and was the first poet to have been buried in Poet\u0027s Corner of Westminster Abbey ."
        }
      ],
      "defaultResponsePlatforms": {},
      "speech": []
    }
  ],
  "priority": 500000,
  "webhookUsed": false,
  "webhookForSlotFilling": false,
  "fallbackIntent": false,
  "events": []
}