[
  {
    "id": "741f995e-a726-4fc4-8598-651fed677b8d",
    "data": [
      {
        "text": "what does the doghouse do in a glass furnace",
        "userDefined": false
      }
    ],
    "isTemplate": false,
    "count": 0,
    "updated": 0
  }
]