[
  {
    "id": "5f10e9f2-8c89-49b5-8678-eb0b2ba5c1fc",
    "data": [
      {
        "text": "what are the primary components of globalization that affect how the practice of medicine takes place in the",
        "userDefined": false
      }
    ],
    "isTemplate": false,
    "count": 0,
    "updated": 0
  }
]