{
  "id": "00a92e35-ddd4-41fa-ad90-1eb45f76d6ca",
  "name": "Globalization",
  "auto": true,
  "contexts": [],
  "responses": [
    {
      "resetContexts": false,
      "affectedContexts": [],
      "parameters": [],
      "messages": [
        {
          "type": 0,
          "lang": "en",
          "speech": "Gross domestic product in 2011 US dollars per capita, adjusted for inflation and purchasing power parity (log scale) from 1860 to 2011, with population (disk area) for the US (yellow), UK (orange), Japan (red), China (red), and India (blue)."
        }
      ],
      "defaultResponsePlatforms": {},
      "speech": []
    }
  ],
  "priority": 500000,
  "webhookUsed": false,
  "webhookForSlotFilling": false,
  "fallbackIntent": false,
  "events": []
}