[
  {
    "id": "68d76a4d-bef9-47bb-8d8d-3b065c28aae1",
    "data": [
      {
        "text": "how many black people live in green bay",
        "userDefined": false
      }
    ],
    "isTemplate": false,
    "count": 0,
    "updated": 0
  }
]