[
  {
    "id": "5e4b73ff-745a-4d5a-8235-f320cf7e6b6e",
    "data": [
      {
        "text": "who played tracy dad in hairspray",
        "userDefined": false
      }
    ],
    "isTemplate": false,
    "count": 0,
    "updated": 0
  }
]