{
  "id": "84c2d5c5-0153-415c-a21e-98b04f2d79d4",
  "name": "Hardcore Pawn",
  "auto": true,
  "contexts": [],
  "responses": [
    {
      "resetContexts": false,
      "affectedContexts": [],
      "parameters": [],
      "messages": [
        {
          "type": 0,
          "lang": "en",
          "speech": "Hardcore Pawn is an American reality television series produced by RDF USA (later Zodiak USA ) and Richard Dominick Productions for truTV about the day-to-day operations of American Jewelry and Loan, a family-owned pawn shop located at 20450 Greenfield Road, between 8 Mile Road and the John C. Lodge Freeway in Detroit, Michigan ."
        }
      ],
      "defaultResponsePlatforms": {},
      "speech": []
    }
  ],
  "priority": 500000,
  "webhookUsed": false,
  "webhookForSlotFilling": false,
  "fallbackIntent": false,
  "events": []
}