[
  {
    "id": "364c4c45-d184-430b-8f9c-fec28b076593",
    "data": [
      {
        "text": "when does harley release new year models",
        "userDefined": false
      }
    ],
    "isTemplate": false,
    "count": 0,
    "updated": 0
  }
]