{
  "id": "0c9fade3-3dea-47c4-b77d-0c624eed1884",
  "name": "Heron",
  "auto": true,
  "contexts": [],
  "responses": [
    {
      "resetContexts": false,
      "affectedContexts": [],
      "parameters": [],
      "messages": [
        {
          "type": 0,
          "lang": "en",
          "speech": "The herons are long-legged freshwater and coastal birds in the family Ardeidae, with 64 recognised species (some are called \" egrets \" or \" bitterns \" instead of \"heron\")."
        }
      ],
      "defaultResponsePlatforms": {},
      "speech": []
    }
  ],
  "priority": 500000,
  "webhookUsed": false,
  "webhookForSlotFilling": false,
  "fallbackIntent": false,
  "events": []
}