[
  {
    "id": "9a210987-fa20-427c-af94-5db8e531a5df",
    "data": [
      {
        "text": "where can i find shantytowns during the great depression",
        "userDefined": false
      }
    ],
    "isTemplate": false,
    "count": 0,
    "updated": 0
  }
]