[
  {
    "id": "f9ca92e0-c84a-4cf6-9ce2-6512d0a4163e",
    "data": [
      {
        "text": "what films has hugh grant and richard curtis done together",
        "userDefined": false
      }
    ],
    "isTemplate": false,
    "count": 0,
    "updated": 0
  }
]