[
  {
    "id": "323cf761-d320-4cb3-8e0c-335069b77335",
    "data": [
      {
        "text": "what causes brain freeze",
        "userDefined": false
      }
    ],
    "isTemplate": false,
    "count": 0,
    "updated": 0
  }
]