[
  {
    "id": "ec0d5e32-c49c-41b6-bcde-070f44d02c74",
    "data": [
      {
        "text": "what percent of illegal immigrants are from mexico and europe",
        "userDefined": false
      }
    ],
    "isTemplate": false,
    "count": 0,
    "updated": 0
  }
]