[
  {
    "id": "a10e6440-0dcb-441d-a47e-ba0128ae8a06",
    "data": [
      {
        "text": "how many stories is an imax",
        "userDefined": false
      }
    ],
    "isTemplate": false,
    "count": 0,
    "updated": 0
  }
]