[
  {
    "id": "02cd05e2-c8ea-4fc1-ac83-7f23a8d5de2a",
    "data": [
      {
        "text": "who created imdb",
        "userDefined": false
      }
    ],
    "isTemplate": false,
    "count": 0,
    "updated": 0
  }
]