[
  {
    "id": "3e84e92b-c341-41f2-9451-bf15ca341cc2",
    "data": [
      {
        "text": "how did morgan become a wealthy man",
        "userDefined": false
      }
    ],
    "isTemplate": false,
    "count": 0,
    "updated": 0
  }
]