[
  {
    "id": "efff2509-9775-4bd6-9ba2-d0f1b3b0acff",
    "data": [
      {
        "text": "how jameson irish whiskey is made",
        "userDefined": false
      }
    ],
    "isTemplate": false,
    "count": 0,
    "updated": 0
  }
]