[
  {
    "id": "1f4b7574-219c-4d34-a1ce-535799015156",
    "data": [
      {
        "text": "what are american people of japanese descent called",
        "userDefined": false
      }
    ],
    "isTemplate": false,
    "count": 0,
    "updated": 0
  }
]