{
  "id": "d759c527-0f25-4cf3-8d1d-edf2151016a1",
  "name": "Jehovah\u0027s Witnesses",
  "auto": true,
  "contexts": [],
  "responses": [
    {
      "resetContexts": false,
      "affectedContexts": [],
      "parameters": [],
      "messages": [
        {
          "type": 0,
          "lang": "en",
          "speech": "Jehovah\u0027s Witnesses is a millenarian restorationist Christian denomination with nontrinitarian beliefs distinct from mainstream Christianity .Sources for descriptors:• Millenarian: • Restorationist: • Christian: • Denomination: The organization reports worldwide membership of over 7.78 million adherents involved in evangelism , convention attendance of over 12 million, and annual Memorial attendance of over 19 million."
        }
      ],
      "defaultResponsePlatforms": {},
      "speech": []
    }
  ],
  "priority": 500000,
  "webhookUsed": false,
  "webhookForSlotFilling": false,
  "fallbackIntent": false,
  "events": []
}