[
  {
    "id": "0010c7ce-71ca-4a42-ae8e-f1c7f6664e2f",
    "data": [
      {
        "text": "what year was president kennedy president",
        "userDefined": false
      }
    ],
    "isTemplate": false,
    "count": 0,
    "updated": 0
  }
]