[
  {
    "id": "66f27729-3115-451e-9f42-56a22e3f312b",
    "data": [
      {
        "text": "who killed general warren in bunker hill",
        "userDefined": false
      }
    ],
    "isTemplate": false,
    "count": 0,
    "updated": 0
  }
]