[
  {
    "id": "b9a09141-bf33-421b-ae0a-877e27f5d155",
    "data": [
      {
        "text": "what did lawrence joshua chamberlain do",
        "userDefined": false
      }
    ],
    "isTemplate": false,
    "count": 0,
    "updated": 0
  }
]