[
  {
    "id": "f9ed9d50-8261-416f-befc-cf0a20bc6915",
    "data": [
      {
        "text": "how old was shakespeare juliet",
        "userDefined": false
      }
    ],
    "isTemplate": false,
    "count": 0,
    "updated": 0
  }
]