[
  {
    "id": "a88bf202-39e8-4492-9af1-74c96c85fe27",
    "data": [
      {
        "text": "how long have kanab ambersnail been endangered",
        "userDefined": false
      }
    ],
    "isTemplate": false,
    "count": 0,
    "updated": 0
  }
]