[
  {
    "id": "9b1236f3-ec62-4b2e-b651-08f2db586baf",
    "data": [
      {
        "text": "what holiday is first weekend of september",
        "userDefined": false
      }
    ],
    "isTemplate": false,
    "count": 0,
    "updated": 0
  }
]