{
  "id": "63d74447-4360-4174-9bcd-5d38ec33cf5f",
  "name": "Last Tango in Paris",
  "auto": true,
  "contexts": [],
  "responses": [
    {
      "resetContexts": false,
      "affectedContexts": [],
      "parameters": [],
      "messages": [
        {
          "type": 0,
          "lang": "en",
          "speech": "Last Tango in Paris () is a 1972 Franco-Italian romantic Drama film directed by Bernardo Bertolucci which portrays a recent American widower who begins an anonymous sexual relationship with a young, betrothed Parisian woman."
        }
      ],
      "defaultResponsePlatforms": {},
      "speech": []
    }
  ],
  "priority": 500000,
  "webhookUsed": false,
  "webhookForSlotFilling": false,
  "fallbackIntent": false,
  "events": []
}