[
  {
    "id": "6dc5c784-109d-466f-8cff-872cf6790e52",
    "data": [
      {
        "text": "what channel is letterman on",
        "userDefined": false
      }
    ],
    "isTemplate": false,
    "count": 0,
    "updated": 0
  }
]