[
  {
    "id": "7329b0c4-ba25-4614-9ca1-5b74efd82f21",
    "data": [
      {
        "text": "who played the lead roles in the movie leaving las vegas",
        "userDefined": false
      }
    ],
    "isTemplate": false,
    "count": 0,
    "updated": 0
  }
]