{
  "id": "896649f2-e02b-435e-ad61-0e0aa7112d9c",
  "name": "Leaving Las Vegas",
  "auto": true,
  "contexts": [],
  "responses": [
    {
      "resetContexts": false,
      "affectedContexts": [],
      "parameters": [],
      "messages": [
        {
          "type": 0,
          "lang": "en",
          "speech": "Leaving Las Vegas is a 1995 romantic drama film directed and written by Mike Figgis , based on a semi- autobiographical novel of the same name by John O\u0027Brien ."
        }
      ],
      "defaultResponsePlatforms": {},
      "speech": []
    }
  ],
  "priority": 500000,
  "webhookUsed": false,
  "webhookForSlotFilling": false,
  "fallbackIntent": false,
  "events": []
}