{
  "id": "bb6b9191-32e8-4830-9acc-6b969c4fec3e",
  "name": "Leech (computing)",
  "auto": true,
  "contexts": [],
  "responses": [
    {
      "resetContexts": false,
      "affectedContexts": [],
      "parameters": [],
      "messages": [
        {
          "type": 0,
          "lang": "en",
          "speech": "In computing and specifically Internet , a leech is one who benefits, usually deliberately, from others\u0027 information or effort but does not offer anything in return, or makes only token offerings in an attempt to avoid being called a leech."
        }
      ],
      "defaultResponsePlatforms": {},
      "speech": []
    }
  ],
  "priority": 500000,
  "webhookUsed": false,
  "webhookForSlotFilling": false,
  "fallbackIntent": false,
  "events": []
}