[
  {
    "id": "a67b9bc8-1c80-4779-a2fd-ef1c27def4e7",
    "data": [
      {
        "text": "what does life insurance cover",
        "userDefined": false
      }
    ],
    "isTemplate": false,
    "count": 0,
    "updated": 0
  }
]