[
  {
    "id": "3f3182e5-7540-433d-8a09-6154b85cd0db",
    "data": [
      {
        "text": "how does british succession work",
        "userDefined": false
      }
    ],
    "isTemplate": false,
    "count": 0,
    "updated": 0
  }
]