[
  {
    "id": "c02faed3-8175-473b-827f-eb74e3ffd33c",
    "data": [
      {
        "text": "what to make with linen",
        "userDefined": false
      }
    ],
    "isTemplate": false,
    "count": 0,
    "updated": 0
  }
]