[
  {
    "id": "346a5c53-d765-4d8d-989a-a26d126b7dc1",
    "data": [
      {
        "text": "how many district are in west bengal",
        "userDefined": false
      }
    ],
    "isTemplate": false,
    "count": 0,
    "updated": 0
  }
]