[
  {
    "id": "31ce53ba-92a8-4423-b6b7-56e0aabde8a8",
    "data": [
      {
        "text": "how many english dukes are there",
        "userDefined": false
      }
    ],
    "isTemplate": false,
    "count": 0,
    "updated": 0
  }
]