[
  {
    "id": "8b702ba3-6e95-4a4f-a690-aca84b8ed6d3",
    "data": [
      {
        "text": "how old is youngest mother in the world",
        "userDefined": false
      }
    ],
    "isTemplate": false,
    "count": 0,
    "updated": 0
  }
]