[
  {
    "id": "ca9c8466-8867-4bb2-bfe0-b5d66c722062",
    "data": [
      {
        "text": "who played derwin davis on the first episodes of the tv show the game",
        "userDefined": false
      }
    ],
    "isTemplate": false,
    "count": 0,
    "updated": 0
  }
]