[
  {
    "id": "6fb9dc0e-6d1d-4dda-a4df-43827304d86f",
    "data": [
      {
        "text": "how many countries have english as an official language",
        "userDefined": false
      }
    ],
    "isTemplate": false,
    "count": 0,
    "updated": 0
  }
]