[
  {
    "id": "4d497511-9d89-45d1-a60e-cad26ac2ac1e",
    "data": [
      {
        "text": "who has obama appointed to the supreme court",
        "userDefined": false
      }
    ],
    "isTemplate": false,
    "count": 0,
    "updated": 0
  }
]