[
  {
    "id": "b530cf63-a668-495c-9a7f-78d281b1ecc9",
    "data": [
      {
        "text": "how many presidents of the us",
        "userDefined": false
      }
    ],
    "isTemplate": false,
    "count": 0,
    "updated": 0
  }
]