[
  {
    "id": "ea7b5060-9f34-4175-b8b4-01d9ba4b63bb",
    "data": [
      {
        "text": "how many teams can a league send to little league",
        "userDefined": false
      }
    ],
    "isTemplate": false,
    "count": 0,
    "updated": 0
  }
]