[
  {
    "id": "73850e62-e000-401b-9e75-4217078374ab",
    "data": [
      {
        "text": "what do maggots turn into to",
        "userDefined": false
      }
    ],
    "isTemplate": false,
    "count": 0,
    "updated": 0
  }
]