[
  {
    "id": "2938082c-f47c-45c5-95eb-d2746cc260ba",
    "data": [
      {
        "text": "what is a magnolias kingdom",
        "userDefined": false
      }
    ],
    "isTemplate": false,
    "count": 0,
    "updated": 0
  }
]