[
  {
    "id": "63ddd20c-06a0-489f-b7d4-e3bea79d3226",
    "data": [
      {
        "text": "who sings i am a man of constant sorrow",
        "userDefined": false
      }
    ],
    "isTemplate": false,
    "count": 0,
    "updated": 0
  }
]