[
  {
    "id": "abba0818-8373-4d79-9ee5-23b2260dfc2c",
    "data": [
      {
        "text": "what did margot frank do for fun",
        "userDefined": false
      }
    ],
    "isTemplate": false,
    "count": 0,
    "updated": 0
  }
]