{
  "id": "066acb0e-267c-4c93-8301-5518c671859a",
  "name": "Margot Frank",
  "auto": true,
  "contexts": [],
  "responses": [
    {
      "resetContexts": false,
      "affectedContexts": [],
      "parameters": [],
      "messages": [
        {
          "type": 0,
          "lang": "en",
          "speech": "Margot Betti Frank (16 February 1926 – 9 March 1945) was the eldest daughter of Otto and Edith Frank, and the older sister of Anne Frank , whose deportation order from the Gestapo hastened the Frank family into hiding, and who subsequently perished in Bergen-Belsen ."
        }
      ],
      "defaultResponsePlatforms": {},
      "speech": []
    }
  ],
  "priority": 500000,
  "webhookUsed": false,
  "webhookForSlotFilling": false,
  "fallbackIntent": false,
  "events": []
}