[
  {
    "id": "918b82a1-2e67-4d3b-b892-da094fc13992",
    "data": [
      {
        "text": "how do you become listed in who who in the world",
        "userDefined": false
      }
    ],
    "isTemplate": false,
    "count": 0,
    "updated": 0
  }
]