[
  {
    "id": "3b3b4271-a9ed-4fc6-9aa5-7fd1c5843cb7",
    "data": [
      {
        "text": "what year did martin luther king die",
        "userDefined": false
      }
    ],
    "isTemplate": false,
    "count": 0,
    "updated": 0
  }
]