[
  {
    "id": "e69e26d0-ac14-4dce-820b-18e5b885708e",
    "data": [
      {
        "text": "what did the hollywood blacklist have to do with mccarthy",
        "userDefined": false
      }
    ],
    "isTemplate": false,
    "count": 0,
    "updated": 0
  }
]