{
  "id": "263d5472-7acc-44d3-aab3-67998c02cbc3",
  "name": "McDonnell Douglas F-15 Eagle",
  "auto": true,
  "contexts": [],
  "responses": [
    {
      "resetContexts": false,
      "affectedContexts": [],
      "parameters": [],
      "messages": [
        {
          "type": 0,
          "lang": "en",
          "speech": "The McDonnell Douglas (now Boeing ) F-15 Eagle is a twin-engine , all-weather tactical fighter designed by McDonnell Douglas to gain and maintain air superiority in aerial combat."
        }
      ],
      "defaultResponsePlatforms": {},
      "speech": []
    }
  ],
  "priority": 500000,
  "webhookUsed": false,
  "webhookForSlotFilling": false,
  "fallbackIntent": false,
  "events": []
}