{
  "id": "dd9ed97f-09f6-4b9f-a654-f1f2162cde61",
  "name": "McMuffin",
  "auto": true,
  "contexts": [],
  "responses": [
    {
      "resetContexts": false,
      "affectedContexts": [],
      "parameters": [],
      "messages": [
        {
          "type": 0,
          "lang": "en",
          "speech": "The McMuffin is a family of breakfast sandwiches in various sizes and configurations, sold by the fast-food restaurant chain McDonald\u0027s ."
        }
      ],
      "defaultResponsePlatforms": {},
      "speech": []
    }
  ],
  "priority": 500000,
  "webhookUsed": false,
  "webhookForSlotFilling": false,
  "fallbackIntent": false,
  "events": []
}