[
  {
    "id": "edd1ee0c-3731-4bbd-a0d5-800abb22a78b",
    "data": [
      {
        "text": "what is a melon baller used for",
        "userDefined": false
      }
    ],
    "isTemplate": false,
    "count": 0,
    "updated": 0
  }
]