{
  "id": "402b602d-7034-4321-8144-861b70348d47",
  "name": "Metre",
  "auto": true,
  "contexts": [],
  "responses": [
    {
      "resetContexts": false,
      "affectedContexts": [],
      "parameters": [],
      "messages": [
        {
          "type": 0,
          "lang": "en",
          "speech": "The metre (meter in American English ), (SI unit symbol: m; SI dimension symbol: L), is the fundamental unit of length in the International System of Units (SI)."
        }
      ],
      "defaultResponsePlatforms": {},
      "speech": []
    }
  ],
  "priority": 500000,
  "webhookUsed": false,
  "webhookForSlotFilling": false,
  "fallbackIntent": false,
  "events": []
}