[
  {
    "id": "122c22e0-c6ea-4753-a073-286248bfe1cf",
    "data": [
      {
        "text": "what did mia hamm do his work",
        "userDefined": false
      }
    ],
    "isTemplate": false,
    "count": 0,
    "updated": 0
  }
]