[
  {
    "id": "8422c127-73e5-4d41-b18b-f2d7e4218653",
    "data": [
      {
        "text": "how do you get a michelin star",
        "userDefined": false
      }
    ],
    "isTemplate": false,
    "count": 0,
    "updated": 0
  }
]