[
  {
    "id": "51a25724-35a8-4688-8b55-cbddbcc676f3",
    "data": [
      {
        "text": "what is a millwright worker",
        "userDefined": false
      }
    ],
    "isTemplate": false,
    "count": 0,
    "updated": 0
  }
]