{
  "id": "8ab9295e-720b-4854-8dd1-0ee673bb4aaf",
  "name": "Misfits (TV series)",
  "auto": true,
  "contexts": [],
  "responses": [
    {
      "resetContexts": false,
      "affectedContexts": [],
      "parameters": [],
      "messages": [
        {
          "type": 0,
          "lang": "en",
          "speech": "Misfits is a British science fiction comedy-drama television show about a group of young offenders sentenced to work in a community service programme, where they obtain supernatural powers after a strange electrical storm ."
        }
      ],
      "defaultResponsePlatforms": {},
      "speech": []
    }
  ],
  "priority": 500000,
  "webhookUsed": false,
  "webhookForSlotFilling": false,
  "fallbackIntent": false,
  "events": []
}