{
  "id": "e141b59d-02e6-482f-adaa-dfd21e8e501a",
  "name": "Mitzi Kapture",
  "auto": true,
  "contexts": [],
  "responses": [
    {
      "resetContexts": false,
      "affectedContexts": [],
      "parameters": [],
      "messages": [
        {
          "type": 0,
          "lang": "en",
          "speech": "Mitzi Gaynor Donahue (born May 2, 1962 in Yorba Linda , Orange County, California ) is an American actress, also credited and more popularly known as Mitzi Kapture."
        }
      ],
      "defaultResponsePlatforms": {},
      "speech": []
    }
  ],
  "priority": 500000,
  "webhookUsed": false,
  "webhookForSlotFilling": false,
  "fallbackIntent": false,
  "events": []
}