[
  {
    "id": "5d7163c7-5749-4b8a-9051-5b6ce3dab6bf",
    "data": [
      {
        "text": "where do the mohawks live",
        "userDefined": false
      }
    ],
    "isTemplate": false,
    "count": 0,
    "updated": 0
  }
]