[
  {
    "id": "72661e62-f349-42ee-ac31-113edc159670",
    "data": [
      {
        "text": "how old was monica lewinsky during the affair",
        "userDefined": false
      }
    ],
    "isTemplate": false,
    "count": 0,
    "updated": 0
  }
]