[
  {
    "id": "0bdbc63b-5455-4778-9c15-86beab9b5d8d",
    "data": [
      {
        "text": "what order is the moth",
        "userDefined": false
      }
    ],
    "isTemplate": false,
    "count": 0,
    "updated": 0
  }
]