[
  {
    "id": "32175419-3d1f-4a96-9f6d-ae99c58bd7c3",
    "data": [
      {
        "text": "what do mucous membranes secrete",
        "userDefined": false
      }
    ],
    "isTemplate": false,
    "count": 0,
    "updated": 0
  }
]