[
  {
    "id": "b7020cd1-1f0d-437a-9972-af009804f1c9",
    "data": [
      {
        "text": "what color is multicam",
        "userDefined": false
      }
    ],
    "isTemplate": false,
    "count": 0,
    "updated": 0
  }
]