[
  {
    "id": "d7891bd8-a6d4-4ece-a5a0-e5590de191a4",
    "data": [
      {
        "text": "how long before symptoms of deadly mushrooms",
        "userDefined": false
      }
    ],
    "isTemplate": false,
    "count": 0,
    "updated": 0
  }
]