{
  "id": "4caa2533-3251-49eb-981d-e9a1067db3c0",
  "name": "My Babysitter\u0027s a Vampire (TV series)",
  "auto": true,
  "contexts": [],
  "responses": [
    {
      "resetContexts": false,
      "affectedContexts": [],
      "parameters": [],
      "messages": [
        {
          "type": 0,
          "lang": "en",
          "speech": "My Babysitter\u0027s a Vampire ( French : Ma gardienne est un vampire) is a 2011 Canadian television series, based on the television film of the same name ."
        }
      ],
      "defaultResponsePlatforms": {},
      "speech": []
    }
  ],
  "priority": 500000,
  "webhookUsed": false,
  "webhookForSlotFilling": false,
  "fallbackIntent": false,
  "events": []
}