[
  {
    "id": "0a062144-3bcf-4d74-a413-b03d43b3cba2",
    "data": [
      {
        "text": "how many people die from myasthenia gravis per year",
        "userDefined": false
      }
    ],
    "isTemplate": false,
    "count": 0,
    "updated": 0
  }
]