[
  {
    "id": "1cdf6b98-47ad-4edf-bc65-fb742b0cf97d",
    "data": [
      {
        "text": "what kind of personality test is the mbti",
        "userDefined": false
      }
    ],
    "isTemplate": false,
    "count": 0,
    "updated": 0
  }
]