[
  {
    "id": "46f4060f-0ad4-4f0c-b02c-da55b4875ae5",
    "data": [
      {
        "text": "how many teams start nhl playoffs",
        "userDefined": false
      }
    ],
    "isTemplate": false,
    "count": 0,
    "updated": 0
  }
]