{
  "id": "081debcc-25d9-42a4-9038-422b495fd1de",
  "name": "Nonprofit organization",
  "auto": true,
  "contexts": [],
  "responses": [
    {
      "resetContexts": false,
      "affectedContexts": [],
      "parameters": [],
      "messages": [
        {
          "type": 0,
          "lang": "en",
          "speech": "A nonprofit organization (US and UK), or not-for-profit organization (UK and others), often called an NPO or simply a nonprofit and non-commercial organization (Russia and CIS ), often called an NCO, is an organization that uses surplus revenues to achieve its goals rather than distributing them as profit or dividends."
        }
      ],
      "defaultResponsePlatforms": {},
      "speech": []
    }
  ],
  "priority": 500000,
  "webhookUsed": false,
  "webhookForSlotFilling": false,
  "fallbackIntent": false,
  "events": []
}