[
  {
    "id": "53718e52-63ef-4bb6-bfdb-d7ec95da5e99",
    "data": [
      {
        "text": "what is a notary for",
        "userDefined": false
      }
    ],
    "isTemplate": false,
    "count": 0,
    "updated": 0
  }
]