{
  "id": "dce99219-68d2-4c8a-8ff9-bfc23f0f641c",
  "name": "Obstetrics",
  "auto": true,
  "contexts": [],
  "responses": [
    {
      "resetContexts": false,
      "affectedContexts": [],
      "parameters": [],
      "messages": [
        {
          "type": 0,
          "lang": "en",
          "speech": "Obstetrics (from the Latin obstare, \"to stand by\") is the medical specialty dealing with the care of all women\u0027s reproductive tracts and their children during pregnancy (prenatal period), childbirth and the postnatal period."
        }
      ],
      "defaultResponsePlatforms": {},
      "speech": []
    }
  ],
  "priority": 500000,
  "webhookUsed": false,
  "webhookForSlotFilling": false,
  "fallbackIntent": false,
  "events": []
}