[
  {
    "id": "ef56eb7b-09fa-4de3-ace8-3e8c6af1016d",
    "data": [
      {
        "text": "how an oil rig works",
        "userDefined": false
      }
    ],
    "isTemplate": false,
    "count": 0,
    "updated": 0
  }
]