{
  "id": "e5073cc2-7ddf-4cf8-b377-c10f8b5440e5",
  "name": "Operation Torch",
  "auto": true,
  "contexts": [],
  "responses": [
    {
      "resetContexts": false,
      "affectedContexts": [],
      "parameters": [],
      "messages": [
        {
          "type": 0,
          "lang": "en",
          "speech": "Operation Torch (initially called Operation Gymnast) was the British – American invasion of French North Africa in World War II during the North African Campaign , started on 8 November 1942."
        }
      ],
      "defaultResponsePlatforms": {},
      "speech": []
    }
  ],
  "priority": 500000,
  "webhookUsed": false,
  "webhookForSlotFilling": false,
  "fallbackIntent": false,
  "events": []
}