[
  {
    "id": "4bed8d8c-b113-4ffd-bffa-7fbc691b3dff",
    "data": [
      {
        "text": "when to use ounces",
        "userDefined": false
      }
    ],
    "isTemplate": false,
    "count": 0,
    "updated": 0
  }
]