{
  "id": "e888bd5c-d56e-4e87-8d1f-c71f2a8fdb79",
  "name": "Pager",
  "auto": true,
  "contexts": [],
  "responses": [
    {
      "resetContexts": false,
      "affectedContexts": [],
      "parameters": [],
      "messages": [
        {
          "type": 0,
          "lang": "en",
          "speech": "A Motorola Advisor alphanumeric pager used in Brazil in the 1990s, operated by Teletrim"
        }
      ],
      "defaultResponsePlatforms": {},
      "speech": []
    }
  ],
  "priority": 500000,
  "webhookUsed": false,
  "webhookForSlotFilling": false,
  "fallbackIntent": false,
  "events": []
}