{
  "id": "019ea6f5-37fb-43f1-b88d-a514a226481e",
  "name": "Paul Bragg",
  "auto": true,
  "contexts": [],
  "responses": [
    {
      "resetContexts": false,
      "affectedContexts": [],
      "parameters": [],
      "messages": [
        {
          "type": 0,
          "lang": "en",
          "speech": "Paul Bragg (February 6, 1895 – December 7, 1976), nutritionist , was a pioneer in America’s wellness movement."
        }
      ],
      "defaultResponsePlatforms": {},
      "speech": []
    }
  ],
  "priority": 500000,
  "webhookUsed": false,
  "webhookForSlotFilling": false,
  "fallbackIntent": false,
  "events": []
}