[
  {
    "id": "5ba2e5e0-7332-47cf-9d28-e2a74651777b",
    "data": [
      {
        "text": "what is a biwa pearl",
        "userDefined": false
      }
    ],
    "isTemplate": false,
    "count": 0,
    "updated": 0
  }
]