[
  {
    "id": "d62532a8-e30f-4b65-8a44-76215d306a00",
    "data": [
      {
        "text": "where does penelope cruz come from",
        "userDefined": false
      }
    ],
    "isTemplate": false,
    "count": 0,
    "updated": 0
  }
]