[
  {
    "id": "1937b75f-939b-45f3-9107-b6f278096d7e",
    "data": [
      {
        "text": "who created the populist party",
        "userDefined": false
      }
    ],
    "isTemplate": false,
    "count": 0,
    "updated": 0
  }
]