{
  "id": "77cfc90c-5d7c-4aba-ba23-3e92ba309655",
  "name": "Per diem",
  "auto": true,
  "contexts": [],
  "responses": [
    {
      "resetContexts": false,
      "affectedContexts": [],
      "parameters": [],
      "messages": [
        {
          "type": 0,
          "lang": "en",
          "speech": "Per diem ( Latin for \"per day\" or \"for each day\") is a daily allowance for expenses, a specific amount of money that an organization gives an individual per day to cover living and traveling expenses (allowance) in connection with work done away from home or on tour."
        }
      ],
      "defaultResponsePlatforms": {},
      "speech": []
    }
  ],
  "priority": 500000,
  "webhookUsed": false,
  "webhookForSlotFilling": false,
  "fallbackIntent": false,
  "events": []
}