{
  "id": "ca67c820-3be0-4c6a-9828-9fe5f46b8d06",
  "name": "Peritoneum",
  "auto": true,
  "contexts": [],
  "responses": [
    {
      "resetContexts": false,
      "affectedContexts": [],
      "parameters": [],
      "messages": [
        {
          "type": 0,
          "lang": "en",
          "speech": "The peritoneum () is the serous membrane that forms the lining of the abdominal cavity or the coelom —it covers most of the intra-abdominal (or coelomic) organs—in amniotes and some invertebrates ( annelids , for instance)."
        }
      ],
      "defaultResponsePlatforms": {},
      "speech": []
    }
  ],
  "priority": 500000,
  "webhookUsed": false,
  "webhookForSlotFilling": false,
  "fallbackIntent": false,
  "events": []
}