[
  {
    "id": "69210283-642b-4ec5-ad08-24003c4ef9f1",
    "data": [
      {
        "text": "what is a landed immigrant in canada",
        "userDefined": false
      }
    ],
    "isTemplate": false,
    "count": 0,
    "updated": 0
  }
]