[
  {
    "id": "57ae0724-1ef4-4af5-a38f-f057cb78a445",
    "data": [
      {
        "text": "what are the parts of plant stems",
        "userDefined": false
      }
    ],
    "isTemplate": false,
    "count": 0,
    "updated": 0
  }
]