{
  "id": "155bbb83-5e54-4206-9bf3-59e18c62c09e",
  "name": "Plasma (physics)",
  "auto": true,
  "contexts": [],
  "responses": [
    {
      "resetContexts": false,
      "affectedContexts": [],
      "parameters": [],
      "messages": [
        {
          "type": 0,
          "lang": "en",
          "speech": "Plasma (from Greek πλάσμα, \"anything formed\") is one of the four fundamental states of matter (the others being solid , liquid , and gas )."
        }
      ],
      "defaultResponsePlatforms": {},
      "speech": []
    }
  ],
  "priority": 500000,
  "webhookUsed": false,
  "webhookForSlotFilling": false,
  "fallbackIntent": false,
  "events": []
}