[
  {
    "id": "d389b3c6-8c16-44ee-a8b3-9ed2bb78c7de",
    "data": [
      {
        "text": "how much of our universe does plasma make up",
        "userDefined": false
      }
    ],
    "isTemplate": false,
    "count": 0,
    "updated": 0
  }
]