{
  "id": "a8b4eacf-4dac-4c35-8aa3-d501a9ec96f8",
  "name": "Potato bread",
  "auto": true,
  "contexts": [],
  "responses": [
    {
      "resetContexts": false,
      "affectedContexts": [],
      "parameters": [],
      "messages": [
        {
          "type": 0,
          "lang": "en",
          "speech": "Potato bread is a form of bread in which potato replaces a portion of the regular wheat flour ."
        }
      ],
      "defaultResponsePlatforms": {},
      "speech": []
    }
  ],
  "priority": 500000,
  "webhookUsed": false,
  "webhookForSlotFilling": false,
  "fallbackIntent": false,
  "events": []
}