[
  {
    "id": "19775770-ca98-46e0-8848-5376cf9b5b1d",
    "data": [
      {
        "text": "how do you heal a bed sore",
        "userDefined": false
      }
    ],
    "isTemplate": false,
    "count": 0,
    "updated": 0
  }
]