[
  {
    "id": "7b6899cc-fede-493a-ad60-0e0c0b5b09d7",
    "data": [
      {
        "text": "how south african leaders are elected",
        "userDefined": false
      }
    ],
    "isTemplate": false,
    "count": 0,
    "updated": 0
  }
]