[
  {
    "id": "9ae19b3c-2a9d-4d50-87dd-0f7267a7e67f",
    "data": [
      {
        "text": "what are the two initials of the first us president to resign from office",
        "userDefined": false
      }
    ],
    "isTemplate": false,
    "count": 0,
    "updated": 0
  }
]