[
  {
    "id": "c41efe0f-a94e-4716-afcc-4f7414274375",
    "data": [
      {
        "text": "where does a price floor and price ceiling go on a graph",
        "userDefined": false
      }
    ],
    "isTemplate": false,
    "count": 0,
    "updated": 0
  }
]