[
  {
    "id": "faa1521c-76db-45a1-9633-fbef3b0a0718",
    "data": [
      {
        "text": "who sang proud mary",
        "userDefined": false
      }
    ],
    "isTemplate": false,
    "count": 0,
    "updated": 0
  }
]