[
  {
    "id": "8f9e73fe-ae11-47f7-9dbe-5bd8b5f7725b",
    "data": [
      {
        "text": "how will i feel after my rhizotomy surgery",
        "userDefined": false
      }
    ],
    "isTemplate": false,
    "count": 0,
    "updated": 0
  }
]