[
  {
    "id": "f4ed0ecf-6ef4-42e7-96b8-cb70e0d84699",
    "data": [
      {
        "text": "how are ribosomes made",
        "userDefined": false
      }
    ],
    "isTemplate": false,
    "count": 0,
    "updated": 0
  }
]