[
  {
    "id": "966d3864-c13d-4226-88f7-83aa0f250f59",
    "data": [
      {
        "text": "what does righteousness mean",
        "userDefined": false
      }
    ],
    "isTemplate": false,
    "count": 0,
    "updated": 0
  }
]