[
  {
    "id": "4263b146-def1-48fd-9a4f-c200aac8a8cc",
    "data": [
      {
        "text": "what did do",
        "userDefined": false
      }
    ],
    "isTemplate": false,
    "count": 0,
    "updated": 0
  }
]