[
  {
    "id": "6e6b64f8-405e-4991-980e-061e08daa623",
    "data": [
      {
        "text": "what professional baseball pitchers were on the schaumburg flyers",
        "userDefined": false
      }
    ],
    "isTemplate": false,
    "count": 0,
    "updated": 0
  }
]