[
  {
    "id": "c0a7c7c4-8de3-4683-8611-be60b4ea4fc1",
    "data": [
      {
        "text": "what problems does jamal face in the book scorpion",
        "userDefined": false
      }
    ],
    "isTemplate": false,
    "count": 0,
    "updated": 0
  }
]