{
  "id": "466620aa-a15c-404c-a684-d63f3a359a5e",
  "name": "Selena",
  "auto": true,
  "contexts": [],
  "responses": [
    {
      "resetContexts": false,
      "affectedContexts": [],
      "parameters": [],
      "messages": [
        {
          "type": 0,
          "lang": "en",
          "speech": "Selena Quintanilla-Pérez (April 16, 1971 – March 31, 1995), known simply as Selena, was an American singer-songwriter."
        }
      ],
      "defaultResponsePlatforms": {},
      "speech": []
    }
  ],
  "priority": 500000,
  "webhookUsed": false,
  "webhookForSlotFilling": false,
  "fallbackIntent": false,
  "events": []
}