[
  {
    "id": "48a55660-22db-4476-8883-f0702bd754da",
    "data": [
      {
        "text": "how is seville",
        "userDefined": false
      }
    ],
    "isTemplate": false,
    "count": 0,
    "updated": 0
  }
]