{
  "id": "26833f19-ba52-4b2b-ab6a-ce0629739465",
  "name": "Sex reassignment surgery",
  "auto": true,
  "contexts": [],
  "responses": [
    {
      "resetContexts": false,
      "affectedContexts": [],
      "parameters": [],
      "messages": [
        {
          "type": 0,
          "lang": "en",
          "speech": "Sex reassignment surgery (initialized as SRS; also known as gender reassignment surgery (GRS), genital reconstruction surgery, sex affirmation surgery, sex realignment surgery or sex-change operation) is a term for the surgical procedures by which a person\u0027s physical appearance and function of their existing sexual characteristics are altered to resemble that of the other sex ."
        }
      ],
      "defaultResponsePlatforms": {},
      "speech": []
    }
  ],
  "priority": 500000,
  "webhookUsed": false,
  "webhookForSlotFilling": false,
  "fallbackIntent": false,
  "events": []
}