[
  {
    "id": "7ce3dd03-c756-4ab2-8f60-2ff41def0144",
    "data": [
      {
        "text": "who built the first ship",
        "userDefined": false
      }
    ],
    "isTemplate": false,
    "count": 0,
    "updated": 0
  }
]