[
  {
    "id": "223373ca-3626-4119-b115-a3ffc0216efd",
    "data": [
      {
        "text": "what part of the shoulder hurts with frozen shoulder",
        "userDefined": false
      }
    ],
    "isTemplate": false,
    "count": 0,
    "updated": 0
  }
]