{
  "id": "da78cb88-84f8-4cfc-9df3-586bb04df93a",
  "name": "Siamese (cat)",
  "auto": true,
  "contexts": [],
  "responses": [
    {
      "resetContexts": false,
      "affectedContexts": [],
      "parameters": [],
      "messages": [
        {
          "type": 0,
          "lang": "en",
          "speech": "The Siamese (, ) is one of the first distinctly recognized breeds of Oriental cat ."
        }
      ],
      "defaultResponsePlatforms": {},
      "speech": []
    }
  ],
  "priority": 500000,
  "webhookUsed": false,
  "webhookForSlotFilling": false,
  "fallbackIntent": false,
  "events": []
}