[
  {
    "id": "cb81af50-279d-4576-8fb7-a592d0a3bcd5",
    "data": [
      {
        "text": "how many single people on valentine day",
        "userDefined": false
      }
    ],
    "isTemplate": false,
    "count": 0,
    "updated": 0
  }
]