[
  {
    "id": "f0b1a046-b341-48ca-92f0-c3c4ed45367d",
    "data": [
      {
        "text": "what cars have smart key systems",
        "userDefined": false
      }
    ],
    "isTemplate": false,
    "count": 0,
    "updated": 0
  }
]