{
  "id": "22f4b848-42c0-4ef7-8354-fdbda88d6ce4",
  "name": "Social contract",
  "auto": true,
  "contexts": [],
  "responses": [
    {
      "resetContexts": false,
      "affectedContexts": [],
      "parameters": [],
      "messages": [
        {
          "type": 0,
          "lang": "en",
          "speech": "In political philosophy the social contract or political contract is a theory or model, originating during the Age of Enlightenment , that typically addresses the questions of the origin of society and the legitimacy of the authority of the state over the individual ."
        }
      ],
      "defaultResponsePlatforms": {},
      "speech": []
    }
  ],
  "priority": 500000,
  "webhookUsed": false,
  "webhookForSlotFilling": false,
  "fallbackIntent": false,
  "events": []
}