{
  "id": "0275b87c-b2b3-4c81-b3fe-3317b662d843",
  "name": "Sons of Anarchy",
  "auto": true,
  "contexts": [],
  "responses": [
    {
      "resetContexts": false,
      "affectedContexts": [],
      "parameters": [],
      "messages": [
        {
          "type": 0,
          "lang": "en",
          "speech": "Sons of Anarchy is a television drama series created by Kurt Sutter about the lives of a close-knit outlaw motorcycle club operating in Charming , a fictional town in California\u0027s Central Valley ."
        }
      ],
      "defaultResponsePlatforms": {},
      "speech": []
    }
  ],
  "priority": 500000,
  "webhookUsed": false,
  "webhookForSlotFilling": false,
  "fallbackIntent": false,
  "events": []
}