[
  {
    "id": "43fd8b2b-2193-49c5-b421-ee64dc885135",
    "data": [
      {
        "text": "what countries are in cono sur",
        "userDefined": false
      }
    ],
    "isTemplate": false,
    "count": 0,
    "updated": 0
  }
]