[
  {
    "id": "758dadbc-c5c2-4745-84ed-6268bc4c57b6",
    "data": [
      {
        "text": "what south american country is a colony",
        "userDefined": false
      }
    ],
    "isTemplate": false,
    "count": 0,
    "updated": 0
  }
]