[
  {
    "id": "926f9166-dc92-4472-8c7f-b74f8454a5c0",
    "data": [
      {
        "text": "what county is elizabeth mo in",
        "userDefined": false
      }
    ],
    "isTemplate": false,
    "count": 0,
    "updated": 0
  }
]