[
  {
    "id": "ccf04e2a-9e00-45ae-8e94-b6dd70711682",
    "data": [
      {
        "text": "how many star wars movies are there",
        "userDefined": false
      }
    ],
    "isTemplate": false,
    "count": 0,
    "updated": 0
  }
]