{
  "id": "30fe1464-7b4e-48a6-83a5-c4ba93c6bf76",
  "name": "Syd Barrett",
  "auto": true,
  "contexts": [],
  "responses": [
    {
      "resetContexts": false,
      "affectedContexts": [],
      "parameters": [],
      "messages": [
        {
          "type": 0,
          "lang": "en",
          "speech": "Roger Keith \"Syd\" Barrett (6 January 1946 – 7 July 2006) was an English singer, songwriter, guitarist, and painter, best remembered as a founder member of the band Pink Floyd ."
        }
      ],
      "defaultResponsePlatforms": {},
      "speech": []
    }
  ],
  "priority": 500000,
  "webhookUsed": false,
  "webhookForSlotFilling": false,
  "fallbackIntent": false,
  "events": []
}