{
  "id": "32912ec6-df51-46b4-add5-40325f19d8f2",
  "name": "Tarantula",
  "auto": true,
  "contexts": [],
  "responses": [
    {
      "resetContexts": false,
      "affectedContexts": [],
      "parameters": [],
      "messages": [
        {
          "type": 0,
          "lang": "en",
          "speech": "Tarantulas comprise a group of often hairy and very large arachnids belonging to the Theraphosidae family of spiders , of which approximately 900 species have been identified."
        }
      ],
      "defaultResponsePlatforms": {},
      "speech": []
    }
  ],
  "priority": 500000,
  "webhookUsed": false,
  "webhookForSlotFilling": false,
  "fallbackIntent": false,
  "events": []
}