[
  {
    "id": "e0feeb07-67d9-4883-a1d2-ea9e84bd28ec",
    "data": [
      {
        "text": "how much is teaspoons",
        "userDefined": false
      }
    ],
    "isTemplate": false,
    "count": 0,
    "updated": 0
  }
]