[
  {
    "id": "8eef13e7-5468-4e8a-a7d6-91d33335a532",
    "data": [
      {
        "text": "how old was arnold in terminator",
        "userDefined": false
      }
    ],
    "isTemplate": false,
    "count": 0,
    "updated": 0
  }
]