{
  "id": "102e8b58-2766-44a8-bd1e-31a1b7b2c50d",
  "name": "Texas Southern University",
  "auto": true,
  "contexts": [],
  "responses": [
    {
      "resetContexts": false,
      "affectedContexts": [],
      "parameters": [],
      "messages": [
        {
          "type": 0,
          "lang": "en",
          "speech": "Texas Southern University (shortened to Texas Southern or simply TSU) is a historically black university (HBCU) located in Houston , Texas , United States, accredited by the Southern Association of Colleges and Schools ."
        }
      ],
      "defaultResponsePlatforms": {},
      "speech": []
    }
  ],
  "priority": 500000,
  "webhookUsed": false,
  "webhookForSlotFilling": false,
  "fallbackIntent": false,
  "events": []
}