{
  "id": "e79f3949-975f-4fc6-92a5-48fbed853b29",
  "name": "Texas",
  "auto": true,
  "contexts": [],
  "responses": [
    {
      "resetContexts": false,
      "affectedContexts": [],
      "parameters": [],
      "messages": [
        {
          "type": 0,
          "lang": "en",
          "speech": "Texas is the second most populous and the second-largest of the 50 states in the United States of America , and the largest state in the 48 contiguous United States ."
        }
      ],
      "defaultResponsePlatforms": {},
      "speech": []
    }
  ],
  "priority": 500000,
  "webhookUsed": false,
  "webhookForSlotFilling": false,
  "fallbackIntent": false,
  "events": []
}