[
  {
    "id": "f41badd3-d656-4dd2-b558-1ecd786486c0",
    "data": [
      {
        "text": "how is kafka like the trial",
        "userDefined": false
      }
    ],
    "isTemplate": false,
    "count": 0,
    "updated": 0
  }
]