[
  {
    "id": "96f3fbd0-01d5-4131-9b3d-7c1aaffcb6fc",
    "data": [
      {
        "text": "how many acts are in the scarlet letter",
        "userDefined": false
      }
    ],
    "isTemplate": false,
    "count": 0,
    "updated": 0
  }
]