{
  "id": "dd149054-cd19-4214-82e3-3220f0162a93",
  "name": "The Night the Lights Went Out in Georgia",
  "auto": true,
  "contexts": [],
  "responses": [
    {
      "resetContexts": false,
      "affectedContexts": [],
      "parameters": [],
      "messages": [
        {
          "type": 0,
          "lang": "en",
          "speech": "The Night the Lights Went Out in Georgia is a Southern Gothic song written by songwriter Bobby Russell and performed in 1972 by his then-wife Vicki Lawrence ."
        }
      ],
      "defaultResponsePlatforms": {},
      "speech": []
    }
  ],
  "priority": 500000,
  "webhookUsed": false,
  "webhookForSlotFilling": false,
  "fallbackIntent": false,
  "events": []
}