[
  {
    "id": "bb7d8238-bfb8-4953-9ace-36d9f6dd6fda",
    "data": [
      {
        "text": "what is thin film technology",
        "userDefined": false
      }
    ],
    "isTemplate": false,
    "count": 0,
    "updated": 0
  }
]