[
  {
    "id": "7f645b87-006e-4d91-803c-33cd758009e1",
    "data": [
      {
        "text": "what money is jefferson on",
        "userDefined": false
      }
    ],
    "isTemplate": false,
    "count": 0,
    "updated": 0
  }
]