{
  "id": "6ba34f97-6a0c-42f7-8402-21d26e115042",
  "name": "Tiger Woods",
  "auto": true,
  "contexts": [],
  "responses": [
    {
      "resetContexts": false,
      "affectedContexts": [],
      "parameters": [],
      "messages": [
        {
          "type": 0,
          "lang": "en",
          "speech": "Eldrick Tont \"Tiger\" Woods (born December 30, 1975) is an American professional golfer whose achievements to date rank him among the most successful golfers of all time."
        }
      ],
      "defaultResponsePlatforms": {},
      "speech": []
    }
  ],
  "priority": 500000,
  "webhookUsed": false,
  "webhookForSlotFilling": false,
  "fallbackIntent": false,
  "events": []
}