{
  "id": "0ad45180-6d54-4fa3-a8a9-0217219dfd94",
  "name": "Timeline of radio",
  "auto": true,
  "contexts": [],
  "responses": [
    {
      "resetContexts": false,
      "affectedContexts": [],
      "parameters": [],
      "messages": [
        {
          "type": 0,
          "lang": "en",
          "speech": "The timeline of radio lists within the history of radio , the technology and events that produced instruments that use radio waves and activities that people undertook."
        }
      ],
      "defaultResponsePlatforms": {},
      "speech": []
    }
  ],
  "priority": 500000,
  "webhookUsed": false,
  "webhookForSlotFilling": false,
  "fallbackIntent": false,
  "events": []
}