{
  "id": "e0bacd57-1595-47c2-a08f-ae3dcbdf6f64",
  "name": "Tobacco advertising",
  "auto": true,
  "contexts": [],
  "responses": [
    {
      "resetContexts": false,
      "affectedContexts": [],
      "parameters": [],
      "messages": [
        {
          "type": 0,
          "lang": "en",
          "speech": "Tobacco advertising is the advertising of tobacco products or use (typically cigarette smoking ) by the tobacco industry through a variety of media including sponsorship , particularly of sporting events."
        }
      ],
      "defaultResponsePlatforms": {},
      "speech": []
    }
  ],
  "priority": 500000,
  "webhookUsed": false,
  "webhookForSlotFilling": false,
  "fallbackIntent": false,
  "events": []
}