{
  "id": "8a9ab1fd-616b-4371-bec4-975c63b5fd9d",
  "name": "True Grit (1969 film)",
  "auto": true,
  "contexts": [],
  "responses": [
    {
      "resetContexts": false,
      "affectedContexts": [],
      "parameters": [],
      "messages": [
        {
          "type": 0,
          "lang": "en",
          "speech": "True Grit is a 1969 American western film written by Marguerite Roberts and directed by Henry Hathaway ."
        }
      ],
      "defaultResponsePlatforms": {},
      "speech": []
    }
  ],
  "priority": 500000,
  "webhookUsed": false,
  "webhookForSlotFilling": false,
  "fallbackIntent": false,
  "events": []
}