[
  {
    "id": "84dea810-9124-43f0-a892-012c96c156c7",
    "data": [
      {
        "text": "what country is turkey in",
        "userDefined": false
      }
    ],
    "isTemplate": false,
    "count": 0,
    "updated": 0
  }
]