[
  {
    "id": "b036425c-cdd0-4871-b996-fecfe66d4ce8",
    "data": [
      {
        "text": "how many amendments in us",
        "userDefined": false
      }
    ],
    "isTemplate": false,
    "count": 0,
    "updated": 0
  }
]