[
  {
    "id": "d26064c2-daa7-4948-8166-d975014e5e76",
    "data": [
      {
        "text": "how many members are in the house of representatives",
        "userDefined": false
      }
    ],
    "isTemplate": false,
    "count": 0,
    "updated": 0
  }
]