{
  "id": "bc404cc4-c82b-4420-92e6-fcdeb2f892b0",
  "name": "War on Terror",
  "auto": true,
  "contexts": [],
  "responses": [
    {
      "resetContexts": false,
      "affectedContexts": [],
      "parameters": [],
      "messages": [
        {
          "type": 0,
          "lang": "en",
          "speech": "The War on Terror (also known as the Global War on Terrorism) is a term commonly applied to an international military campaign which started as a result of the 11 September 2001 terrorist attacks on the United States ."
        }
      ],
      "defaultResponsePlatforms": {},
      "speech": []
    }
  ],
  "priority": 500000,
  "webhookUsed": false,
  "webhookForSlotFilling": false,
  "fallbackIntent": false,
  "events": []
}