[
  {
    "id": "a58a884c-ddff-4658-9aa5-1d556c775ed8",
    "data": [
      {
        "text": "when did expos become nationals",
        "userDefined": false
      }
    ],
    "isTemplate": false,
    "count": 0,
    "updated": 0
  }
]