{
  "id": "29530854-fd83-41e7-999e-3cd179ac749b",
  "name": "Whoopi Goldberg",
  "auto": true,
  "contexts": [],
  "responses": [
    {
      "resetContexts": false,
      "affectedContexts": [],
      "parameters": [],
      "messages": [
        {
          "type": 0,
          "lang": "en",
          "speech": "Caryn Elaine Johnson, best known as Whoopi Goldberg (, (born November 13, 1955) is an American comedienne, actress, singer-songwriter, political activist, author and talk show host."
        }
      ],
      "defaultResponsePlatforms": {},
      "speech": []
    }
  ],
  "priority": 500000,
  "webhookUsed": false,
  "webhookForSlotFilling": false,
  "fallbackIntent": false,
  "events": []
}