[
  {
    "id": "cdf23117-8a2b-4eb5-818a-ca29ac076e68",
    "data": [
      {
        "text": "what county is willmar mn in",
        "userDefined": false
      }
    ],
    "isTemplate": false,
    "count": 0,
    "updated": 0
  }
]