[
  {
    "id": "a6c9ddc5-9d87-4336-b6a1-c40107eaddb8",
    "data": [
      {
        "text": "what county is wilton ca in",
        "userDefined": false
      }
    ],
    "isTemplate": false,
    "count": 0,
    "updated": 0
  }
]