[
  {
    "id": "8a0e5341-2185-4e56-9aaf-fc141fcdb790",
    "data": [
      {
        "text": "what does the networking tab in task manager show",
        "userDefined": false
      }
    ],
    "isTemplate": false,
    "count": 0,
    "updated": 0
  }
]