[
  {
    "id": "6fce3223-0b7d-430c-b770-7f3fa9737cbd",
    "data": [
      {
        "text": "what is an file",
        "userDefined": false
      }
    ],
    "isTemplate": false,
    "count": 0,
    "updated": 0
  }
]