{
  "id": "df81502e-4095-42d5-a4ac-1e88418688cc",
  "name": "World Trade Center",
  "auto": true,
  "contexts": [],
  "responses": [
    {
      "resetContexts": false,
      "affectedContexts": [],
      "parameters": [],
      "messages": [
        {
          "type": 0,
          "lang": "en",
          "speech": "The World Trade Center is a complex of buildings under construction in Lower Manhattan , New York City , United States , replacing an earlier complex of seven buildings with the same name on the same site."
        }
      ],
      "defaultResponsePlatforms": {},
      "speech": []
    }
  ],
  "priority": 500000,
  "webhookUsed": false,
  "webhookForSlotFilling": false,
  "fallbackIntent": false,
  "events": []
}