[
  {
    "id": "28fe4aeb-240e-4953-b47e-8859b28b5dd0",
    "data": [
      {
        "text": "what are the busiest airports in the world",
        "userDefined": false
      }
    ],
    "isTemplate": false,
    "count": 0,
    "updated": 0
  }
]